rtl/wb_fuente/simulation/wires_pantalla_wb_TB.vcd
$date
	Fri Apr 28 07:03:51 2017
$end
$version
	Icarus Verilog
$end
$timescale
	10ps
$end
$scope module wires_pantalla_wb_TB $end
$scope module test $end
$var wire 1 ! clk $end
$var wire 8 " d_out [7:0] $end
$var wire 1 # reset $end
$var wire 1 $ wb_ack_o $end
$var wire 32 % wb_adr_i [31:0] $end
$var wire 1 & wb_cyc_i $end
$var wire 32 ' wb_dat_i [31:0] $end
$var wire 1 ( wb_rd $end
$var wire 4 ) wb_sel_i [3:0] $end
$var wire 1 * wb_stb_i $end
$var wire 1 + wb_we_i $end
$var wire 1 , wb_wr $end
$var reg 1 - ack $end
$var reg 10 . addr_rd [9:0] $end
$var reg 7 / caracter [6:0] $end
$var reg 7 0 posx [6:0] $end
$var reg 6 1 posy [5:0] $end
$var reg 1 2 rd $end
$var reg 32 3 wb_dat_o [31:0] $end
$var reg 1 4 wr $end
$scope module wires_pantalla0 $end
$var wire 10 5 addr_rd [9:0] $end
$var wire 10 6 addr_rd_ROM [9:0] $end
$var wire 13 7 addr_wr_RAM [12:0] $end
$var wire 7 8 caracter [6:0] $end
$var wire 1 ! clk $end
$var wire 1 9 din_RAM $end
$var wire 8 : dout [7:0] $end
$var wire 8 ; dout_ROM [7:0] $end
$var wire 7 < posx [6:0] $end
$var wire 6 = posy [5:0] $end
$var wire 1 > rd $end
$var wire 1 ? rd_ROM $end
$var wire 1 # rst $end
$var wire 1 @ wr $end
$var wire 1 A wr_RAM $end
$scope module ram $end
$var wire 10 B addr_rd [9:0] $end
$var wire 13 C addr_wr [12:0] $end
$var wire 1 ! clk $end
$var wire 1 9 d_in $end
$var wire 1 > rd $end
$var wire 1 # rst $end
$var wire 1 A wr $end
$var reg 8 D d_out [7:0] $end
$upscope $end
$scope module rom $end
$var wire 10 E addr_rd [9:0] $end
$var wire 1 ! clk $end
$var wire 1 ? rd $end
$var wire 1 # rst $end
$var reg 8 F d_out [7:0] $end
$upscope $end
$scope module control $end
$var wire 13 G addrRAM [12:0] $end
$var wire 10 H addrROM [9:0] $end
$var wire 7 I caracter [6:0] $end
$var wire 1 ! clk $end
$var wire 1 9 dinRAM $end
$var wire 8 J doutROM [7:0] $end
$var wire 7 K posx [6:0] $end
$var wire 6 L posy [5:0] $end
$var wire 1 # rst $end
$var wire 1 @ wr $end
$var reg 3 M btc [2:0] $end
$var reg 3 N ncolumna [2:0] $end
$var reg 1 O rdROM $end
$var reg 3 P state [2:0] $end
$var reg 1 Q wrRAM $end
$upscope $end
$upscope $end
$upscope $end
$upscope $end
$enddefinitions $end
#0
$dumpvars
xQ
b0 P
xO
bx N
bx M
bx L
bx K
bx J
bx I
bx H
bx G
bx F
bx E
bx D
bx C
bx B
xA
0@
x?
0>
bx =
bx <
bx ;
bx :
x9
bx 8
bx 7
bx 6
bx 5
04
bx 3
02
bx 1
bx 0
bx /
bx .
x-
0,
0+
0*
b0 )
0(
b0 '
0&
b0 %
0$
0#
bx "
0!
$end
#1000
0-
b0xxxxxxxx 3
0Q
0A
0O
0?
b0 N
b0 M
1!
#2000
0!
#3000
b0xxxxxxxx 3
1!
#4000
0!
#5000
b0xxxxxxxx 3
1!
#6000
0!
#7000
b0xxxxxxxx 3
1!
#8000
0!
#9000
b0xxxxxxxx 3
1!
#10000
b0 F
09
b0 ;
b0 J
b0 D
b0 "
b0 :
0!
1#
#11000
b0 6
b0 E
b0 H
b0 .
b0 5
b0 B
b0 /
b0 8
b0 I
b0 1
b0 =
b0 L
b0 0
b0 <
b0 K
b0 7
b0 C
b0 G
b0 3
1!
#12000
0!
#13000
1!
#14000
0!
#15000
1!
#16000
0!
#17000
1!
#18000
0!
#19000
1!
#20000
0!
0#
#21000
b0 3
1!
#22000
0!
#23000
b0 3
1!
#24000
0!
#25000
b0 3
1!
#26000
0!
#27000
b0 3
1!
#28000
0!
#29000
b0 3
1!
#30000
0!
b1000 %
#31000
b0 3
1!
#32000
0!
#33000
b0 3
1!
#34000
0!
#35000
b0 3
1!
#36000
0!
#37000
b0 3
1!
#38000
0!
#39000
b0 3
1!
#40000
1,
0!
1+
1&
1*
#41000
1$
1-
b0 3
1!
#42000
0!
#43000
0$
0-
b0 3
1!
#44000
0,
0!
0+
0&
0*
#45000
b0 3
1!
#46000
0!
#47000
b0 3
1!
#48000
0!
#49000
b0 3
1!
#50000
0!
#51000
b0 3
1!
#52000
0!
#53000
b0 3
1!
#54000
0!
b1100 %
#55000
b0 3
1!
#56000
0!
#57000
b0 3
1!
#58000
0!
#59000
b0 3
1!
#60000
0!
#61000
b0 3
1!
#62000
0!
#63000
b0 3
1!
#64000
1,
0!
1+
1&
1*
#65000
1$
1-
b0 3
1!
#66000
0!
#67000
0$
0-
b0 3
1!
#68000
0,
0!
0+
0&
0*
#69000
b0 3
1!
#70000
0!
#71000
b0 3
1!
#72000
0!
#73000
b0 3
1!
#74000
0!
#75000
b0 3
1!
#76000
0!
#77000
b0 3
1!
#78000
0!
b10000 %
b1010000 '
#79000
b0 3
1!
#80000
0!
#81000
b0 3
1!
#82000
0!
#83000
b0 3
1!
#84000
0!
#85000
b0 3
1!
#86000
0!
#87000
b0 3
1!
#88000
1,
0!
1+
1&
1*
#89000
b111100000 6
b111100000 E
b111100000 H
1$
b1010000 /
b1010000 8
b1010000 I
1-
b0 3
1!
#90000
0!
#91000
0$
0-
b0 3
1!
#92000
0,
0!
0+
0&
0*
#93000
b0 3
1!
#94000
0!
#95000
b0 3
1!
#96000
0!
#97000
b0 3
1!
#98000
0!
#99000
b0 3
1!
#100000
0!
#101000
b0 3
1!
#102000
0!
b100 %
b1 '
#103000
b0 3
1!
#104000
0!
#105000
b0 3
1!
#106000
0!
#107000
b0 3
1!
#108000
0!
#109000
b0 3
1!
#110000
0!
#111000
b0 3
1!
#112000
1,
0!
1+
1&
1*
#113000
1$
14
1@
1-
b0 3
1!
#114000
0!
#115000
0$
0-
b0 3
b1 P
1O
1?
1!
#116000
0,
0!
0+
0&
0*
#117000
b0 3
b10 P
1Q
1A
0O
0?
1!
#118000
0!
#119000
b0 3
b11 P
0Q
0A
b1 M
b10000000 7
b10000000 C
b10000000 G
1!
#120000
0!
#121000
b0 3
b10 P
1Q
1A
1!
#122000
0!
#123000
b0 3
b11 P
0Q
0A
b10 M
b100000000 7
b100000000 C
b100000000 G
1!
#124000
0!
#125000
b0 3
b10 P
1Q
1A
1!
#126000
0!
b0 '
#127000
b0 3
b11 P
0Q
0A
b11 M
b110000000 7
b110000000 C
b110000000 G
1!
#128000
0!
#129000
b0 3
b10 P
1Q
1A
1!
#130000
0!
#131000
b0 3
b11 P
0Q
0A
b100 M
b1000000000 7
b1000000000 C
b1000000000 G
1!
#132000
0!
#133000
b0 3
b10 P
1Q
1A
1!
#134000
0!
#135000
b0 3
b11 P
0Q
0A
b101 M
b1010000000 7
b1010000000 C
b1010000000 G
1!
#136000
1,
0!
1+
1&
1*
#137000
1$
04
0@
1-
b0 3
b10 P
1Q
1A
1!
#138000
0!
#139000
0$
0-
b0 3
b11 P
0Q
0A
b110 M
b1100000000 7
b1100000000 C
b1100000000 G
1!
#140000
0,
0!
0+
0&
0*
#141000
b0 3
b10 P
1Q
1A
1!
#142000
0!
#143000
b0 3
b11 P
0Q
0A
b111 M
b1110000000 7
b1110000000 C
b1110000000 G
1!
#144000
0!
#145000
b0 3
b10 P
1Q
1A
1!
#146000
0!
#147000
b0 3
b111100001 6
b111100001 E
b111100001 H
b100 P
0Q
0A
b1 N
b0 M
b1 7
b1 C
b1 G
1!
#148000
0!
#149000
b0 3
b1 P
1O
1?
1!
#150000
b11111100 F
b11111100 ;
b11111100 J
0!
#151000
b0 3
b10 P
1Q
1A
0O
0?
1!
#152000
0!
#153000
b0 3
b11 P
0Q
0A
b1 M
b10000001 7
b10000001 C
b10000001 G
1!
#154000
0!
#155000
b0 3
b10 P
1Q
1A
1!
#156000
0!
#157000
b0 3
b11 P
0Q
0A
b10 M
19
b100000001 7
b100000001 C
b100000001 G
1!
#158000
0!
#159000
b0 3
b10 P
1Q
1A
1!
#160000
0!
#161000
b0 3
b11 P
0Q
0A
b11 M
b110000001 7
b110000001 C
b110000001 G
1!
#162000
0!
#163000
b0 3
b10 P
1Q
1A
1!
#164000
0!
#165000
b0 3
b11 P
0Q
0A
b100 M
b1000000001 7
b1000000001 C
b1000000001 G
1!
#166000
0!
#167000
b0 3
b10 P
1Q
1A
1!
#168000
0!
#169000
b0 3
b11 P
0Q
0A
b101 M
b1010000001 7
b1010000001 C
b1010000001 G
1!
#170000
0!
#171000
b0 3
b10 P
1Q
1A
1!
#172000
0!
#173000
b0 3
b11 P
0Q
0A
b110 M
b1100000001 7
b1100000001 C
b1100000001 G
1!
#174000
0!
#175000
b0 3
b10 P
1Q
1A
1!
#176000
0!
#177000
b0 3
b11 P
0Q
0A
b111 M
b1110000001 7
b1110000001 C
b1110000001 G
1!
#178000
0!
#179000
b0 3
b10 P
1Q
1A
1!
#180000
0!
#181000
b0 3
b111100010 6
b111100010 E
b111100010 H
b100 P
0Q
0A
b10 N
b0 M
09
b10 7
b10 C
b10 G
1!
#182000
0!
#183000
b0 3
b1 P
1O
1?
1!
#184000
b100100 F
b100100 ;
b100100 J
0!
#185000
b0 3
b10 P
1Q
1A
0O
0?
1!
#186000
0!
#187000
b0 3
b11 P
0Q
0A
b1 M
b10000010 7
b10000010 C
b10000010 G
1!
#188000
0!
#189000
b0 3
b10 P
1Q
1A
1!
#190000
0!
#191000
b0 3
b11 P
0Q
0A
b10 M
19
b100000010 7
b100000010 C
b100000010 G
1!
#192000
0!
#193000
b0 3
b10 P
1Q
1A
1!
#194000
0!
#195000
b0 3
b11 P
0Q
0A
b11 M
09
b110000010 7
b110000010 C
b110000010 G
1!
#196000
0!
#197000
b0 3
b10 P
1Q
1A
1!
#198000
0!
#199000
b0 3
b11 P
0Q
0A
b100 M
b1000000010 7
b1000000010 C
b1000000010 G
1!
#200000
0!
#201000
b0 3
b10 P
1Q
1A
1!
#202000
0!
#203000
b0 3
b11 P
0Q
0A
b101 M
19
b1010000010 7
b1010000010 C
b1010000010 G
1!
#204000
0!
#205000
b0 3
b10 P
1Q
1A
1!
#206000
0!
#207000
b0 3
b11 P
0Q
0A
b110 M
09
b1100000010 7
b1100000010 C
b1100000010 G
1!
#208000
0!
#209000
b0 3
b10 P
1Q
1A
1!
#210000
0!
#211000
b0 3
b11 P
0Q
0A
b111 M
b1110000010 7
b1110000010 C
b1110000010 G
1!
#212000
0!
#213000
b0 3
b10 P
1Q
1A
1!
#214000
0!
#215000
b0 3
b111100011 6
b111100011 E
b111100011 H
b100 P
0Q
0A
b11 N
b0 M
b11 7
b11 C
b11 G
1!
#216000
0!
#217000
b0 3
b1 P
1O
1?
1!
#218000
0!
#219000
b0 3
b10 P
1Q
1A
0O
0?
1!
#220000
0!
#221000
b0 3
b11 P
0Q
0A
b1 M
b10000011 7
b10000011 C
b10000011 G
1!
#222000
0!
#223000
b0 3
b10 P
1Q
1A
1!
#224000
0!
#225000
b0 3
b11 P
0Q
0A
b10 M
19
b100000011 7
b100000011 C
b100000011 G
1!
#226000
0!
#227000
b0 3
b10 P
1Q
1A
1!
#228000
0!
#229000
b0 3
b11 P
0Q
0A
b11 M
09
b110000011 7
b110000011 C
b110000011 G
1!
#230000
0!
#231000
b0 3
b10 P
1Q
1A
1!
#232000
0!
#233000
b0 3
b11 P
0Q
0A
b100 M
b1000000011 7
b1000000011 C
b1000000011 G
1!
#234000
0!
#235000
b0 3
b10 P
1Q
1A
1!
#236000
0!
#237000
b0 3
b11 P
0Q
0A
b101 M
19
b1010000011 7
b1010000011 C
b1010000011 G
1!
#238000
0!
#239000
b0 3
b10 P
1Q
1A
1!
#240000
0!
#241000
b0 3
b11 P
0Q
0A
b110 M
09
b1100000011 7
b1100000011 C
b1100000011 G
1!
#242000
0!
#243000
b0 3
b10 P
1Q
1A
1!
#244000
0!
#245000
b0 3
b11 P
0Q
0A
b111 M
b1110000011 7
b1110000011 C
b1110000011 G
1!
#246000
0!
#247000
b0 3
b10 P
1Q
1A
1!
#248000
0!
#249000
b0 3
b111100100 6
b111100100 E
b111100100 H
b100 P
0Q
0A
b100 N
b0 M
b100 7
b100 C
b100 G
1!
#250000
0!
#251000
b0 3
b1 P
1O
1?
1!
#252000
0!
#253000
b0 3
b10 P
1Q
1A
0O
0?
1!
#254000
0!
#255000
b0 3
b11 P
0Q
0A
b1 M
b10000100 7
b10000100 C
b10000100 G
1!
#256000
0!
#257000
b0 3
b10 P
1Q
1A
1!
#258000
0!
#259000
b0 3
b11 P
0Q
0A
b10 M
19
b100000100 7
b100000100 C
b100000100 G
1!
#260000
0!
#261000
b0 3
b10 P
1Q
1A
1!
#262000
0!
#263000
b0 3
b11 P
0Q
0A
b11 M
09
b110000100 7
b110000100 C
b110000100 G
1!
#264000
0!
#265000
b0 3
b10 P
1Q
1A
1!
#266000
0!
#267000
b0 3
b11 P
0Q
0A
b100 M
b1000000100 7
b1000000100 C
b1000000100 G
1!
#268000
0!
#269000
b0 3
b10 P
1Q
1A
1!
#270000
0!
#271000
b0 3
b11 P
0Q
0A
b101 M
19
b1010000100 7
b1010000100 C
b1010000100 G
1!
#272000
0!
#273000
b0 3
b10 P
1Q
1A
1!
#274000
0!
#275000
b0 3
b11 P
0Q
0A
b110 M
09
b1100000100 7
b1100000100 C
b1100000100 G
1!
#276000
0!
#277000
b0 3
b10 P
1Q
1A
1!
#278000
0!
#279000
b0 3
b11 P
0Q
0A
b111 M
b1110000100 7
b1110000100 C
b1110000100 G
1!
#280000
0!
#281000
b0 3
b10 P
1Q
1A
1!
#282000
0!
#283000
b0 3
b111100101 6
b111100101 E
b111100101 H
b100 P
0Q
0A
b101 N
b0 M
b101 7
b101 C
b101 G
1!
#284000
0!
#285000
b0 3
b1 P
1O
1?
1!
#286000
b11000 F
b11000 ;
b11000 J
0!
#287000
b0 3
b10 P
1Q
1A
0O
0?
1!
#288000
0!
#289000
b0 3
b11 P
0Q
0A
b1 M
b10000101 7
b10000101 C
b10000101 G
1!
#290000
0!
#291000
b0 3
b10 P
1Q
1A
1!
#292000
0!
#293000
b0 3
b11 P
0Q
0A
b10 M
b100000101 7
b100000101 C
b100000101 G
1!
#294000
0!
#295000
b0 3
b10 P
1Q
1A
1!
#296000
0!
#297000
b0 3
b11 P
0Q
0A
b11 M
19
b110000101 7
b110000101 C
b110000101 G
1!
#298000
0!
#299000
b0 3
b10 P
1Q
1A
1!
#300000
0!
#301000
b0 3
b11 P
0Q
0A
b100 M
b1000000101 7
b1000000101 C
b1000000101 G
1!
#302000
0!
#303000
b0 3
b10 P
1Q
1A
1!
#304000
0!
#305000
b0 3
b11 P
0Q
0A
b101 M
09
b1010000101 7
b1010000101 C
b1010000101 G
1!
#306000
0!
#307000
b0 3
b10 P
1Q
1A
1!
#308000
0!
#309000
b0 3
b11 P
0Q
0A
b110 M
b1100000101 7
b1100000101 C
b1100000101 G
1!
#310000
0!
#311000
b0 3
b10 P
1Q
1A
1!
#312000
0!
#313000
b0 3
b11 P
0Q
0A
b111 M
b1110000101 7
b1110000101 C
b1110000101 G
1!
#314000
0!
#315000
b0 3
b10 P
1Q
1A
1!
#316000
0!
#317000
b0 3
b111100110 6
b111100110 E
b111100110 H
b100 P
0Q
0A
b110 N
b0 M
b110 7
b110 C
b110 G
1!
#318000
0!
#319000
b0 3
b111100000 6
b111100000 E
b111100000 H
b0 P
b0 N
b0 7
b0 C
b0 G
1!
#320000
0!
b10100 %
b11 '
#321000
b0 3
1!
#322000
0!
#323000
b0 3
1!
#324000
0!
#325000
b0 3
1!
#326000
0!
#327000
b0 3
1!
#328000
0!
#329000
b0 3
1!
#330000
1,
0!
1+
1&
1*
#331000
1$
b11 .
b11 5
b11 B
1-
b0 3
1!
#332000
0!
#333000
0$
0-
b0 3
1!
#334000
0,
0!
0+
0&
0*
#335000
b0 3
1!
#336000
0!
#337000
b0 3
1!
#338000
0!
#339000
b0 3
1!
#340000
0!
#341000
b0 3
1!
#342000
0!
#343000
b0 3
1!
#344000
0!
b0 %
b1 '
#345000
b0 3
1!
#346000
0!
#347000
b0 3
1!
#348000
0!
#349000
b0 3
1!
#350000
0!
#351000
b0 3
1!
#352000
0!
#353000
b0 3
1!
#354000
1,
0!
1+
1&
1*
#355000
1$
12
1>
1-
b0 3
1!
#356000
b100100 D
b100100 "
b100100 :
0!
#357000
0$
0-
b0 3
1!
#358000
0,
0!
0+
0&
0*
#359000
b0 3
1!
#360000
0!
#361000
b0 3
1!
#362000
0!
#363000
b0 3
1!
#364000
0!
#365000
b0 3
1!
#366000
0!
#367000
b0 3
1!
#368000
0!
b0 '
#369000
b0 3
1!
#370000
0!
#371000
b0 3
1!
#372000
0!
#373000
b0 3
1!
#374000
0!
#375000
b0 3
1!
#376000
0!
#377000
b0 3
1!
#378000
1,
0!
1+
1&
1*
#379000
1$
02
0>
1-
b0 3
1!
#380000
0!
#381000
0$
0-
b0 3
1!
#382000
0,
0!
0+
0&
0*
#383000
b0 3
1!
#384000
0!
#385000
b0 3
1!
#386000
0!
#387000
b0 3
1!
#388000
0!
#389000
b0 3
1!
#390000
0!
#391000
b0 3
1!
#392000
0!
#393000
b0 3
1!
#394000
0!
#395000
b0 3
1!
#396000
0!
#397000
b0 3
1!
#398000
0!
#399000
b0 3
1!
#400000
0!
#401000
b0 3
1!
#402000
1(
0!
1&
1*
#403000
1$
1-
b100100 3
1!
#404000
0!
#405000
0$
0-
b100100 3
1!
#406000
0(
0!
0&
0*
#407000
b100100 3
1!
#408000
0!
#409000
b100100 3
1!
#410000
0!
#411000
b100100 3
1!
#412000
0!
#413000
b100100 3
1!
#414000
0!
#415000
b100100 3
1!
#416000
0!
#417000
b100100 3
1!
#418000
0!
#419000
b100100 3
1!
#420000
0!
#421000
b100100 3
1!
#422000
0!
#423000
b100100 3
1!
#424000
0!
#425000
b100100 3
1!
#426000
0!
#427000
b100100 3
1!
#428000
0!
#429000
b100100 3
1!
#430000
0!
#431000
b100100 3
1!
#432000
0!
#433000
b100100 3
1!
#434000
0!
#435000
b100100 3
1!
#436000
0!
#437000
b100100 3
1!
#438000
0!
#439000
b100100 3
1!
#440000
0!
#441000
b100100 3
1!
#442000
0!
#443000
b100100 3
1!
#444000
0!
#445000
b100100 3
1!
#446000
0!
#447000
b100100 3
1!
#448000
0!
#449000
b100100 3
1!
#450000
0!
#451000
b100100 3
1!
#452000
0!
#453000
b100100 3
1!
#454000
0!
#455000
b100100 3
1!
#456000
0!
#457000
b100100 3
1!
#458000
0!
#459000
b100100 3
1!
#460000
0!
#461000
b100100 3
1!
#462000
0!
#463000
b100100 3
1!
#464000
0!
#465000
b100100 3
1!
#466000
0!
#467000
b100100 3
1!
#468000
0!
#469000
b100100 3
1!
#470000
0!
#471000
b100100 3
1!
#472000
0!
#473000
b100100 3
1!
#474000
0!
#475000
b100100 3
1!
#476000
0!
#477000
b100100 3
1!
#478000
0!
#479000
b100100 3
1!
#480000
0!
#481000
b100100 3
1!
#482000
0!
#483000
b100100 3
1!
#484000
0!
#485000
b100100 3
1!
#486000
0!
#487000
b100100 3
1!
#488000
0!
#489000
b100100 3
1!
#490000
0!
#491000
b100100 3
1!
#492000
0!
#493000
b100100 3
1!
#494000
0!
#495000
b100100 3
1!
#496000
0!
#497000
b100100 3
1!
#498000
0!
#499000
b100100 3
1!
#500000
0!
#501000
b100100 3
1!
#502000
0!
#503000
b100100 3
1!
#504000
0!
#505000
b100100 3
1!
#506000
0!
#507000
b100100 3
1!
#508000
0!
#509000
b100100 3
1!
#510000
0!
#511000
b100100 3
1!
#512000
0!
#513000
b100100 3
1!
#514000
0!
#515000
b100100 3
1!
#516000
0!
#517000
b100100 3
1!
#518000
0!
#519000
b100100 3
1!
#520000
0!
#521000
b100100 3
1!
#522000
0!
#523000
b100100 3
1!
#524000
0!
#525000
b100100 3
1!
#526000
0!
#527000
b100100 3
1!
#528000
0!
#529000
b100100 3
1!
#530000
0!
#531000
b100100 3
1!
#532000
0!
#533000
b100100 3
1!
#534000
0!
#535000
b100100 3
1!
#536000
0!
#537000
b100100 3
1!
#538000
0!
#539000
b100100 3
1!
#540000
0!
#541000
b100100 3
1!
#542000
0!
#543000
b100100 3
1!
#544000
0!
#545000
b100100 3
1!
#546000
0!
#547000
b100100 3
1!
#548000
0!
#549000
b100100 3
1!
#550000
0!
#551000
b100100 3
1!
#552000
0!
#553000
b100100 3
1!
#554000
0!
#555000
b100100 3
1!
#556000
0!
#557000
b100100 3
1!
#558000
0!
#559000
b100100 3
1!
#560000
0!
#561000
b100100 3
1!
#562000
0!
#563000
b100100 3
1!
#564000
0!
#565000
b100100 3
1!
#566000
0!
#567000
b100100 3
1!
#568000
0!
#569000
b100100 3
1!
#570000
0!
#571000
b100100 3
1!
#572000
0!
#573000
b100100 3
1!
#574000
0!
#575000
b100100 3
1!
#576000
0!
#577000
b100100 3
1!
#578000
0!
#579000
b100100 3
1!
#580000
0!
#581000
b100100 3
1!
#582000
0!
#583000
b100100 3
1!
#584000
0!
#585000
b100100 3
1!
#586000
0!
#587000
b100100 3
1!
#588000
0!
#589000
b100100 3
1!
#590000
0!
#591000
b100100 3
1!
#592000
0!
#593000
b100100 3
1!
#594000
0!
#595000
b100100 3
1!
#596000
0!
#597000
b100100 3
1!
#598000
0!
#599000
b100100 3
1!
#600000
0!
#601000
b100100 3
1!
#602000
0!
#603000
b100100 3
1!
#604000
0!
#605000
b100100 3
1!
#606000
0!
#607000
b100100 3
1!
#608000
0!
#609000
b100100 3
1!
#610000
0!
#611000
b100100 3
1!
#612000
0!
#613000
b100100 3
1!
#614000
0!
#615000
b100100 3
1!
#616000
0!
#617000
b100100 3
1!
#618000
0!
#619000
b100100 3
1!
#620000
0!
#621000
b100100 3
1!
#622000
0!
#623000
b100100 3
1!
#624000
0!
#625000
b100100 3
1!
#626000
0!
#627000
b100100 3
1!
#628000
0!
#629000
b100100 3
1!
#630000
0!
#631000
b100100 3
1!
#632000
0!
#633000
b100100 3
1!
#634000
0!
#635000
b100100 3
1!
#636000
0!
#637000
b100100 3
1!
#638000
0!
#639000
b100100 3
1!
#640000
0!
#641000
b100100 3
1!
#642000
0!
#643000
b100100 3
1!
#644000
0!
#645000
b100100 3
1!
#646000
0!
#647000
b100100 3
1!
#648000
0!
#649000
b100100 3
1!
#650000
0!
#651000
b100100 3
1!
#652000
0!
#653000
b100100 3
1!
#654000
0!
#655000
b100100 3
1!
#656000
0!
#657000
b100100 3
1!
#658000
0!
#659000
b100100 3
1!
#660000
0!
#661000
b100100 3
1!
#662000
0!
#663000
b100100 3
1!
#664000
0!
#665000
b100100 3
1!
#666000
0!
#667000
b100100 3
1!
#668000
0!
#669000
b100100 3
1!
#670000
0!
#671000
b100100 3
1!
#672000
0!
#673000
b100100 3
1!
#674000
0!
#675000
b100100 3
1!
#676000
0!
#677000
b100100 3
1!
#678000
0!
#679000
b100100 3
1!
#680000
0!
#681000
b100100 3
1!
#682000
0!
#683000
b100100 3
1!
#684000
0!
#685000
b100100 3
1!
#686000
0!
#687000
b100100 3
1!
#688000
0!
#689000
b100100 3
1!
#690000
0!
#691000
b100100 3
1!
#692000
0!
#693000
b100100 3
1!
#694000
0!
#695000
b100100 3
1!
#696000
0!
#697000
b100100 3
1!
#698000
0!
#699000
b100100 3
1!
#700000
0!
#701000
b100100 3
1!
#702000
0!
#703000
b100100 3
1!
#704000
0!
#705000
b100100 3
1!
#706000
0!
#707000
b100100 3
1!
#708000
0!
#709000
b100100 3
1!
#710000
0!
#711000
b100100 3
1!
#712000
0!
#713000
b100100 3
1!
#714000
0!
#715000
b100100 3
1!
#716000
0!
#717000
b100100 3
1!
#718000
0!
#719000
b100100 3
1!
#720000
0!
#721000
b100100 3
1!
#722000
0!
#723000
b100100 3
1!
#724000
0!
#725000
b100100 3
1!
#726000
0!
#727000
b100100 3
1!
#728000
0!
#729000
b100100 3
1!
#730000
0!
#731000
b100100 3
1!
#732000
0!
#733000
b100100 3
1!
#734000
0!
#735000
b100100 3
1!
#736000
0!
#737000
b100100 3
1!
#738000
0!
#739000
b100100 3
1!
#740000
0!
#741000
b100100 3
1!
#742000
0!
#743000
b100100 3
1!
#744000
0!
#745000
b100100 3
1!
#746000
0!
#747000
b100100 3
1!
#748000
0!
#749000
b100100 3
1!
#750000
0!
#751000
b100100 3
1!
#752000
0!
#753000
b100100 3
1!
#754000
0!
#755000
b100100 3
1!
#756000
0!
#757000
b100100 3
1!
#758000
0!
#759000
b100100 3
1!
#760000
0!
#761000
b100100 3
1!
#762000
0!
#763000
b100100 3
1!
#764000
0!
#765000
b100100 3
1!
#766000
0!
#767000
b100100 3
1!
#768000
0!
#769000
b100100 3
1!
#770000
0!
#771000
b100100 3
1!
#772000
0!
#773000
b100100 3
1!
#774000
0!
#775000
b100100 3
1!
#776000
0!
#777000
b100100 3
1!
#778000
0!
#779000
b100100 3
1!
#780000
0!
#781000
b100100 3
1!
#782000
0!
#783000
b100100 3
1!
#784000
0!
#785000
b100100 3
1!
#786000
0!
#787000
b100100 3
1!
#788000
0!
#789000
b100100 3
1!
#790000
0!
#791000
b100100 3
1!
#792000
0!
#793000
b100100 3
1!
#794000
0!
#795000
b100100 3
1!
#796000
0!
#797000
b100100 3
1!
#798000
0!
#799000
b100100 3
1!
#800000
0!
#801000
b100100 3
1!
#802000
0!
#803000
b100100 3
1!
#804000
0!
#805000
b100100 3
1!
#806000
0!
#807000
b100100 3
1!
#808000
0!
#809000
b100100 3
1!
#810000
0!
#811000
b100100 3
1!
#812000
0!
#813000
b100100 3
1!
#814000
0!
#815000
b100100 3
1!
#816000
0!
#817000
b100100 3
1!
#818000
0!
#819000
b100100 3
1!
#820000
0!
#821000
b100100 3
1!
#822000
0!
#823000
b100100 3
1!
#824000
0!
#825000
b100100 3
1!
#826000
0!
#827000
b100100 3
1!
#828000
0!
#829000
b100100 3
1!
#830000
0!
#831000
b100100 3
1!
#832000
0!
#833000
b100100 3
1!
#834000
0!
#835000
b100100 3
1!
#836000
0!
#837000
b100100 3
1!
#838000
0!
#839000
b100100 3
1!
#840000
0!
#841000
b100100 3
1!
#842000
0!
#843000
b100100 3
1!
#844000
0!
#845000
b100100 3
1!
#846000
0!
#847000
b100100 3
1!
#848000
0!
#849000
b100100 3
1!
#850000
0!
#851000
b100100 3
1!
#852000
0!
#853000
b100100 3
1!
#854000
0!
#855000
b100100 3
1!
#856000
0!
#857000
b100100 3
1!
#858000
0!
#859000
b100100 3
1!
#860000
0!
#861000
b100100 3
1!
#862000
0!
#863000
b100100 3
1!
#864000
0!
#865000
b100100 3
1!
#866000
0!
#867000
b100100 3
1!
#868000
0!
#869000
b100100 3
1!
#870000
0!
#871000
b100100 3
1!
#872000
0!
#873000
b100100 3
1!
#874000
0!
#875000
b100100 3
1!
#876000
0!
#877000
b100100 3
1!
#878000
0!
#879000
b100100 3
1!
#880000
0!
#881000
b100100 3
1!
#882000
0!
#883000
b100100 3
1!
#884000
0!
#885000
b100100 3
1!
#886000
0!
#887000
b100100 3
1!
#888000
0!
#889000
b100100 3
1!
#890000
0!
#891000
b100100 3
1!
#892000
0!
#893000
b100100 3
1!
#894000
0!
#895000
b100100 3
1!
#896000
0!
#897000
b100100 3
1!
#898000
0!
#899000
b100100 3
1!
#900000
0!
#901000
b100100 3
1!
#902000
0!
#903000
b100100 3
1!
#904000
0!
#905000
b100100 3
1!
#906000
0!
#907000
b100100 3
1!
#908000
0!
#909000
b100100 3
1!
#910000
0!
#911000
b100100 3
1!
#912000
0!
#913000
b100100 3
1!
#914000
0!
#915000
b100100 3
1!
#916000
0!
#917000
b100100 3
1!
#918000
0!
#919000
b100100 3
1!
#920000
0!
#921000
b100100 3
1!
#922000
0!
#923000
b100100 3
1!
#924000
0!
#925000
b100100 3
1!
#926000
0!
#927000
b100100 3
1!
#928000
0!
#929000
b100100 3
1!
#930000
0!
#931000
b100100 3
1!
#932000
0!
#933000
b100100 3
1!
#934000
0!
#935000
b100100 3
1!
#936000
0!
#937000
b100100 3
1!
#938000
0!
#939000
b100100 3
1!
#940000
0!
#941000
b100100 3
1!
#942000
0!
#943000
b100100 3
1!
#944000
0!
#945000
b100100 3
1!
#946000
0!
#947000
b100100 3
1!
#948000
0!
#949000
b100100 3
1!
#950000
0!
#951000
b100100 3
1!
#952000
0!
#953000
b100100 3
1!
#954000
0!
#955000
b100100 3
1!
#956000
0!
#957000
b100100 3
1!
#958000
0!
#959000
b100100 3
1!
#960000
0!
#961000
b100100 3
1!
#962000
0!
#963000
b100100 3
1!
#964000
0!
#965000
b100100 3
1!
#966000
0!
#967000
b100100 3
1!
#968000
0!
#969000
b100100 3
1!
#970000
0!
#971000
b100100 3
1!
#972000
0!
#973000
b100100 3
1!
#974000
0!
#975000
b100100 3
1!
#976000
0!
#977000
b100100 3
1!
#978000
0!
#979000
b100100 3
1!
#980000
0!
#981000
b100100 3
1!
#982000
0!
#983000
b100100 3
1!
#984000
0!
#985000
b100100 3
1!
#986000
0!
#987000
b100100 3
1!
#988000
0!
#989000
b100100 3
1!
#990000
0!
#991000
b100100 3
1!
#992000
0!
#993000
b100100 3
1!
#994000
0!
#995000
b100100 3
1!
#996000
0!
#997000
b100100 3
1!
#998000
0!
#999000
b100100 3
1!
